%YAML 1.1
%TAG !u! tag:unity3d.com,2011:
--- !u!1001 &7379182273306258531
PrefabInstance:
  m_ObjectHideFlags: 0
  serializedVersion: 2
  m_Modification:
    serializedVersion: 3
    m_TransformParent: {fileID: 0}
    m_Modifications:
    - target: {fileID: 2483300472707934136, guid: c531be2551826bb4ca361e54450fe0a8, type: 3}
      propertyPath: m_Size.x
      value: 1.52
      objectReference: {fileID: 0}
    - target: {fileID: 2483300472707934136, guid: c531be2551826bb4ca361e54450fe0a8, type: 3}
      propertyPath: m_Size.y
      value: 1.52
      objectReference: {fileID: 0}
    - target: {fileID: 2483300472707934136, guid: c531be2551826bb4ca361e54450fe0a8, type: 3}
      propertyPath: m_Sprite
      value: 
      objectReference: {fileID: 21300000, guid: 3f007e4661ab1cb458f36061ed82bd61, type: 3}
    - target: {fileID: 2483300472707934136, guid: c531be2551826bb4ca361e54450fe0a8, type: 3}
      propertyPath: m_WasSpriteAssigned
      value: 1
      objectReference: {fileID: 0}
    - target: {fileID: 2662991429268840840, guid: c531be2551826bb4ca361e54450fe0a8, type: 3}
      propertyPath: m_Name
      value: BodySnakePart
      objectReference: {fileID: 0}
    - target: {fileID: 7011273627945682951, guid: c531be2551826bb4ca361e54450fe0a8, type: 3}
      propertyPath: m_LocalPosition.x
      value: 0
      objectReference: {fileID: 0}
    - target: {fileID: 7011273627945682951, guid: c531be2551826bb4ca361e54450fe0a8, type: 3}
      propertyPath: m_LocalPosition.y
      value: 0
      objectReference: {fileID: 0}
    - target: {fileID: 7011273627945682951, guid: c531be2551826bb4ca361e54450fe0a8, type: 3}
      propertyPath: m_LocalPosition.z
      value: 0
      objectReference: {fileID: 0}
    - target: {fileID: 7011273627945682951, guid: c531be2551826bb4ca361e54450fe0a8, type: 3}
      propertyPath: m_LocalRotation.w
      value: 1
      objectReference: {fileID: 0}
    - target: {fileID: 7011273627945682951, guid: c531be2551826bb4ca361e54450fe0a8, type: 3}
      propertyPath: m_LocalRotation.x
      value: 0
      objectReference: {fileID: 0}
    - target: {fileID: 7011273627945682951, guid: c531be2551826bb4ca361e54450fe0a8, type: 3}
      propertyPath: m_LocalRotation.y
      value: 0
      objectReference: {fileID: 0}
    - target: {fileID: 7011273627945682951, guid: c531be2551826bb4ca361e54450fe0a8, type: 3}
      propertyPath: m_LocalRotation.z
      value: 0
      objectReference: {fileID: 0}
    - target: {fileID: 7011273627945682951, guid: c531be2551826bb4ca361e54450fe0a8, type: 3}
      propertyPath: m_LocalEulerAnglesHint.x
      value: 0
      objectReference: {fileID: 0}
    - target: {fileID: 7011273627945682951, guid: c531be2551826bb4ca361e54450fe0a8, type: 3}
      propertyPath: m_LocalEulerAnglesHint.y
      value: 0
      objectReference: {fileID: 0}
    - target: {fileID: 7011273627945682951, guid: c531be2551826bb4ca361e54450fe0a8, type: 3}
      propertyPath: m_LocalEulerAnglesHint.z
      value: 0
      objectReference: {fileID: 0}
    m_RemovedComponents: []
    m_RemovedGameObjects: []
    m_AddedGameObjects: []
    m_AddedComponents: []
  m_SourcePrefab: {fileID: 100100000, guid: c531be2551826bb4ca361e54450fe0a8, type: 3}
